%YAML 1.1
%TAG !u! tag:unity3d.com,2011:
--- !u!114 &11400000
MonoBehaviour:
  m_ObjectHideFlags: 0
  m_CorrespondingSourceObject: {fileID: 0}
  m_PrefabInstance: {fileID: 0}
  m_PrefabAsset: {fileID: 0}
  m_GameObject: {fileID: 0}
  m_Enabled: 1
  m_EditorHideFlags: 0
  m_Script: {fileID: 11500000, guid: 46ce61c5386ee4b1ba2d007088f7c65e, type: 3}
  m_Name: Shape 2
  m_EditorClassIdentifier: 
  _color: {r: 0.23921569, g: 0.6666667, b: 1, a: 1}
  _appearanceOdds: 10
  _cubesPositions:
  - {x: 0, y: -1, z: 0}
  - {x: 0, y: 1, z: 0}
  - {x: 1, y: 0, z: 0}
